<svg width="16" height="16" viewBox="0 0 16 16" fill="none" xmlns="http://www.w3.org/2000/svg">
<g clip-path="url(#clip0)">
<path d="M13.9111 1.95793H13.2083V0.784912H12.037V1.95793H4.3067V0.784912H3.13544V1.95793H2.43268C1.46393 1.95793 0.675781 2.74726 0.675781 3.71746V14.04C0.675781 15.0102 1.46393 15.7996 2.43268 15.7996H13.9111C14.8798 15.7996 15.668 15.0102 15.668 14.04V3.71746C15.668 2.74726 14.8798 1.95793 13.9111 1.95793ZM14.4967 14.04C14.4967 14.3634 14.234 14.6265 13.9111 14.6265H2.43268C2.10976 14.6265 1.84705 14.3634 1.84705 14.04V6.2981H14.4967V14.04ZM14.4967 5.12508H1.84705V3.71746C1.84705 3.39406 2.10976 3.13095 2.43268 3.13095H3.13544V4.30397H4.3067V3.13095H12.037V4.30397H13.2083V3.13095H13.9111C14.234 3.13095 14.4967 3.39406 14.4967 3.71746V5.12508Z" fill="#BB986F"/>
<path d="M4.07245 7.52979H2.90118V8.7028H4.07245V7.52979Z" fill="#BB986F"/>
<path d="M6.41498 7.52979H5.24371V8.7028H6.41498V7.52979Z" fill="#BB986F"/>
<path d="M8.75751 7.52979H7.58624V8.7028H8.75751V7.52979Z" fill="#BB986F"/>
<path d="M11.1 7.52979H9.92877V8.7028H11.1V7.52979Z" fill="#BB986F"/>
<path d="M13.4426 7.52979H12.2713V8.7028H13.4426V7.52979Z" fill="#BB986F"/>
<path d="M4.07245 9.87582H2.90118V11.0488H4.07245V9.87582Z" fill="#BB986F"/>
<path d="M6.41498 9.87582H5.24371V11.0488H6.41498V9.87582Z" fill="#BB986F"/>
<path d="M8.75751 9.87582H7.58624V11.0488H8.75751V9.87582Z" fill="#BB986F"/>
<path d="M11.1 9.87582H9.92877V11.0488H11.1V9.87582Z" fill="#BB986F"/>
<path d="M4.07245 12.2219H2.90118V13.3949H4.07245V12.2219Z" fill="#BB986F"/>
<path d="M6.41498 12.2219H5.24371V13.3949H6.41498V12.2219Z" fill="#BB986F"/>
<path d="M8.75751 12.2219H7.58624V13.3949H8.75751V12.2219Z" fill="#BB986F"/>
<path d="M11.1 12.2219H9.92877V13.3949H11.1V12.2219Z" fill="#BB986F"/>
<path d="M13.4426 9.87582H12.2713V11.0488H13.4426V9.87582Z" fill="#BB986F"/>
</g>
<defs>
<clipPath id="clip0">
<rect width="14.9922" height="15.0146" fill="white" transform="translate(0.675781 0.784912)"/>
</clipPath>
</defs>
</svg>
