<svg width="45" height="45" viewBox="0 0 45 45" fill="none" xmlns="http://www.w3.org/2000/svg">
<rect width="45" height="45" rx="22.5" fill="#175DE5"/>
<g clip-path="url(#clip0)">
<path d="M13.6709 22.5634L15.0151 23.3104V23.9184C15.0151 24.3272 15.3465 24.6587 15.7554 24.6587C16.0951 24.6587 16.3807 24.4296 16.4678 24.1177L17.5989 24.7463V25.3065C17.5989 25.7153 17.9304 26.0468 18.3392 26.0468C18.6641 26.0468 18.9392 25.8374 19.039 25.5465L20.0426 26.1042C20.117 27.5409 20.2518 28.8589 20.4397 29.9527C20.5887 30.8204 20.7649 31.5082 20.9634 31.9969C21.0642 32.245 21.3708 33 21.9999 33C22.6291 33 22.9357 32.245 23.0365 31.9969C23.2349 31.5082 23.4111 30.8204 23.5602 29.9527C23.748 28.8589 23.8829 27.5409 23.9573 26.1042L24.9609 25.5465C25.0607 25.8374 25.3359 26.0468 25.6606 26.0468C26.0695 26.0468 26.401 25.7153 26.401 25.3065V24.7463L27.5322 24.1177C27.6193 24.4296 27.9049 24.6587 28.2446 24.6587C28.6535 24.6587 28.9849 24.3272 28.9849 23.9184V23.3104L30.3292 22.5634C30.476 22.4817 30.5671 22.327 30.5671 22.159V20.2287C30.5671 20.0789 30.4946 19.9383 30.3724 19.8515C30.2503 19.7647 30.0937 19.7425 29.9522 19.7918L24.0011 21.866C23.9461 20.0114 23.7942 18.301 23.5602 16.9384C23.5178 16.6913 23.473 16.4592 23.4263 16.2416L26.5249 14.5197C26.6047 14.4754 26.6542 14.3913 26.6542 14.3V13.2514C26.6542 13.17 26.6148 13.0937 26.5484 13.0464C26.4821 12.9993 26.397 12.9873 26.3201 13.014L22.6981 14.2764C22.5316 14.0668 22.3034 13.891 22 13.891C21.6965 13.891 21.4683 14.0668 21.3019 14.2764L17.6799 13.014C17.6529 13.0047 17.6249 13 17.5972 13C17.5457 13 17.4946 13.0158 17.4516 13.0464C17.3853 13.0937 17.3459 13.1699 17.3459 13.2514V14.3C17.3459 14.3913 17.3953 14.4754 17.4751 14.5197L20.5738 16.2416C20.5271 16.4591 20.4823 16.6912 20.4398 16.9384C20.2058 18.301 20.054 20.0114 19.999 21.866L14.0479 19.7918C13.9983 19.7745 13.9468 19.766 13.8956 19.766C13.8008 19.766 13.707 19.7952 13.6277 19.8515C13.5054 19.9383 13.4329 20.0789 13.4329 20.2287V22.159C13.4329 22.327 13.5239 22.4818 13.6709 22.5634Z" fill="white"/>
</g>
<defs>
<clipPath id="clip0">
<rect width="20" height="20" fill="white" transform="translate(32 33) rotate(-180)"/>
</clipPath>
</defs>
</svg>
