<svg width="60" height="61" viewBox="0 0 60 61" fill="none" xmlns="http://www.w3.org/2000/svg">
<g clip-path="url(#clip0)">
<path d="M53.479 40.0891C53.421 39.9921 53.36 39.8992 53.299 39.8171C52.6931 38.9701 51.792 38.4102 50.764 38.2411C49.741 38.0721 48.704 38.313 47.86 38.9191L36.68 46.9022H25C24.449 46.9022 24 46.4542 24 45.9022C24 45.3502 24.449 44.9022 25 44.9022H31.5C33.43 44.9022 35.0001 43.3323 35.0001 41.4022C35.0001 41.3912 34.999 41.2992 34.9981 41.2892C34.9361 39.3602 33.3091 37.8562 31.4201 37.9023H18.4111C17.2581 37.9122 16.1351 38.3253 15.2501 39.0633L10.3601 43.1333C10.1321 43.3243 10.0001 43.6053 10.0001 43.9023V55.9023C10.0001 56.4553 10.4481 56.9022 11.0001 56.9022H35.8111C37.4351 56.9002 39.0172 56.3283 40.2672 55.2933L52.3902 45.2763C54.0371 44.103 54.5151 41.8251 53.479 40.0891ZM51.1741 43.6911L38.993 53.7521C38.099 54.4922 36.968 54.9001 35.81 54.9021H12V44.371L16.531 40.599C17.063 40.156 17.736 39.9079 18.42 39.902L31.452 39.901C32.281 39.9 32.973 40.527 33 41.4021C33 42.2291 32.327 42.9021 31.5 42.9021H25C23.346 42.9021 22 44.2481 22 45.9021C22 47.5561 23.346 48.9021 25 48.9021H37C37.208 48.9021 37.411 48.837 37.583 48.7161L49.025 40.5451C49.437 40.2491 49.938 40.1341 50.44 40.214C50.941 40.297 51.379 40.569 51.68 40.989C51.71 41.03 51.7369 41.072 51.7629 41.115C52.2691 41.9621 52.034 43.075 51.1741 43.6911Z" fill="#BB986F"/>
<path d="M10.97 41.9022H0V43.9022H9.96996V58.9022H0V60.9021H10.97C11.522 60.9021 11.97 60.4552 11.97 59.9022V42.9021C11.97 42.3491 11.522 41.9022 10.97 41.9022Z" fill="#BB986F"/>
<path d="M5.00012 50.9022C3.34614 50.9022 2.00012 52.2482 2.00012 53.9022C2.00012 55.5561 3.34614 56.9022 5.00012 56.9022C6.65411 56.9022 8.00012 55.5561 8.00012 53.9022C8.00012 52.2482 6.65411 50.9022 5.00012 50.9022ZM5.00012 54.9021C4.44911 54.9021 4.00016 54.4541 4.00016 53.9022C4.00016 53.3502 4.44911 52.9022 5.00012 52.9022C5.55114 52.9022 6.00008 53.3502 6.00008 53.9022C6.00008 54.4541 5.55114 54.9021 5.00012 54.9021Z" fill="#BB986F"/>
<path d="M59 31.9021H0.999961C0.448008 31.9021 0 32.3491 0 32.9021C0 36.761 3.14004 39.902 6.99996 39.902H52.9999C56.8589 39.902 59.9999 36.761 59.9999 32.9021C60 32.3492 59.553 31.9021 59 31.9021ZM53 37.9021H6.99996C4.58496 37.9021 2.565 36.1811 2.10094 33.9021H57.8989C57.435 36.1811 55.415 37.9021 53 37.9021Z" fill="#BB986F"/>
<path d="M30.0002 5.90216C15.6641 5.90216 4.00012 17.5662 4.00012 31.9022V32.9022C4.00012 33.4552 4.44813 33.9021 5.00008 33.9021H55.0001C55.5531 33.9021 56.0001 33.4552 56.0001 32.9022V31.9022C56.0002 17.5661 44.3371 5.90216 30.0002 5.90216ZM6.00016 31.9021C6.00016 18.669 16.7671 7.90208 30.0002 7.90208C43.2332 7.90208 54.0002 18.669 54.0002 31.9021H6.00016Z" fill="#BB986F"/>
<path d="M13.5521 17.3091C12.8531 18.0951 12.2051 18.9361 11.6261 19.8101L13.2931 20.9151C13.8211 20.119 14.4111 19.352 15.047 18.6371L13.5521 17.3091Z" fill="#BB986F"/>
<path d="M30.0002 9.9021C24.3842 9.90515 19.0372 12.0271 14.9453 15.8741L16.3153 17.3311C20.0353 13.833 24.8962 11.9051 30.0013 11.9021L30.0002 9.9021Z" fill="#BB986F"/>
<path d="M33.0001 0.9021H27.0001V2.90214H33.0001V0.9021Z" fill="#BB986F"/>
<path d="M31.0003 1.90204H29.0002V6.90208H31.0003V1.90204Z" fill="#BB986F"/>
</g>
<defs>
<clipPath id="clip0">
<rect width="60" height="60" fill="white" transform="translate(0 0.9021)"/>
</clipPath>
</defs>
</svg>
